<?xml version="1.0" encoding="utf-8"?>
<!-- Generator: Adobe Illustrator 16.0.0, SVG Export Plug-In . SVG Version: 6.00 Build 0)  -->
<!DOCTYPE svg PUBLIC "-//W3C//DTD SVG 1.1//EN" "http://www.w3.org/Graphics/SVG/1.1/DTD/svg11.dtd">
<svg version="1.1" id="Layer_1" xmlns="http://www.w3.org/2000/svg" xmlns:xlink="http://www.w3.org/1999/xlink" x="0px" y="0px"
	 width="54.576px" height="78.915px" viewBox="0 0 54.576 78.915" enable-background="new 0 0 54.576 78.915" xml:space="preserve">
<g>
	<polygon fill="none" stroke="#057DC1" stroke-width="1.5" stroke-miterlimit="10" points="50.453,27.289 53.583,22.058 
		48.689,18.424 49.581,12.393 43.667,10.909 42.183,4.996 36.153,5.887 32.518,0.993 27.288,4.124 22.057,0.993 18.423,5.887 
		12.393,4.996 10.908,10.909 4.996,12.393 5.886,18.424 0.992,22.058 4.123,27.289 0.992,32.519 5.886,36.153 4.996,42.184 
		10.908,43.669 12.393,49.581 15.58,49.11 6.915,78.165 20.334,78.165 27.288,54.85 34.242,78.165 47.662,78.165 38.996,49.11 
		42.183,49.581 43.667,43.669 49.581,42.184 48.689,36.153 53.583,32.519 	"/>
	<circle fill="none" stroke="#057DC1" stroke-width="1.5" stroke-miterlimit="10" cx="26.841" cy="27.724" r="16.812"/>
</g>
</svg>
